Dynamic_NicheNet
…
predict ligand activities = ranks ligands according to how well their prior target gene predictions correspond to the observed gene expression changes. In other words, assess how well each sender_cell-ligand can predict the receiver_cell gene set compared to the background of expressed genes (predict whether a gene belongs to the receiver_cell program or not)

The true ligand with which the cells were treated should predict the differential expression observed in a dataset better than the other ligands. In other words, informative feature importance scores (=measure for ligand activity) should be higher for this ligand (genes of interest) than for others(background genes). The feature importance measures were calculated for each ligand separately.

Next, evaluate how well the feature importance scores of each dataset-ligand combination can predict the correct ligand activity state. Binary classification. For a specific ligand-dataset combination, classified active if the dataset contains expression data of cells treated with that ligand. Then classification evaluatino metrics (AUROC, AUPR, and PCC) are calculated.

Compare this result with random prediction

# Prediction (not ranked yet)
ligand_activities = predict_ligand_activities(geneset = geneset_oi, background_expressed_genes = background_expressed_genes, ligand_target_matrix = ligand_target_matrix, potential_ligands = potential_ligands)

# Rank the prediction
ligand_activities %>% arrange(-aupr)

## # A tibble: 159 x 4
##    test_ligand auroc   aupr pearson
##    <chr>       <dbl>  <dbl>   <dbl>
##  1 Angptl4     0.757 0.228   0.429 
##  2 Fgf1        0.664 0.134   0.299 
##  3 Igf1        0.693 0.123   0.225 
##  4 Sema4g      0.663 0.112   0.152 
##  5 Grn         0.649 0.0615  0.0613
##  6 Nectin2     0.644 0.0556  0.0204
##  7 Cdh1        0.613 0.0532  0.0748
##  8 Ptdss1      0.610 0.0511  0.0719
##  9 F2          0.624 0.0498  0.0325
## 10 AU040320    0.638 0.0496  0.0730
## # ... with 149 more rows
…
